{
  "npmScope": "desic",
  "affected": {
    "defaultBase": "master"
  },
  "implicitDependencies": {
    "angular.json": "*",
    "package.json": {
      "dependencies": "*",
      "devDependencies": "*"
    },
    "tsconfig.base.json": "*",
    "tslint.json": "*",
    "nx.json": "*"
  },
  "tasksRunnerOptions": {
    "default": {
      "runner": "@nrwl/workspace/tasks-runners/default",
      "options": {
        "cacheableOperations": ["build", "lint", "test", "e2e"]
      }
    }
  },
  "projects": {
    "client-app": {
      "tags": []
    },
    "client-app-e2e": {
      "tags": [],
      "implicitDependencies": ["client-app"]
    },
    "admin-app": {
      "tags": []
    },
    "admin-app-e2e": {
      "tags": [],
      "implicitDependencies": ["admin-app"]
    },
    "ui": {
      "tags": []
    },
    "api": {
      "tags": []
    },
    "models": {
      "tags": []
    }
  }
}
