<?xml version="1.0" encoding="utf-8"?>
<!-- Generator: Adobe Illustrator 19.0.0, SVG Export Plug-In . SVG Version: 6.00 Build 0)  -->
<svg version="1.1" id="Layer_1" xmlns="http://www.w3.org/2000/svg" xmlns:xlink="http://www.w3.org/1999/xlink" x="0px" y="0px"
	 viewBox="0 0 400 400" style="enable-background:new 0 0 400 400;" xml:space="preserve">
<style type="text/css">
	.st0{fill:#AE216F;}
	.st1{fill:none;stroke:#AE216F;stroke-width:2;stroke-miterlimit:10;}
	.st2{fill:none;stroke:#AE216F;stroke-linecap:round;stroke-linejoin:round;stroke-miterlimit:10;stroke-dasharray:2,2,2,2,2,2;}
	.st3{fill:none;stroke:#AE216F;stroke-miterlimit:10;}
</style>
<g id="XMLID_617_">
	<path id="XMLID_626_" class="st0" d="M127.4,366.6c2.6,5.1-5.3,9.1-7.8,3.9c-3.5-7-5.4-14.8-5.4-22.6c0-16,7.7-30.5,20.1-40.9
		c7-5.9,15.6-10.5,25.2-13.4c-15.3-8.2-25-24.2-25-41.8c0-26.1,21.2-47.4,47.3-47.4c26.2,0,47.4,21.2,47.4,47.4
		c0,17.5-9.7,33.5-25,41.8c9.6,2.8,18.1,7.4,25.2,13.4c12.3,11.1,20.1,23.8,20.1,40.9c0,7.8-1.9,15.6-5.5,22.6
		c-2.6,5.1-10.4,1.2-7.8-3.9c3-5.9,4.5-12.1,4.5-18.7c0-13.2-6.4-25.2-16.7-34c-12.7-9.9-25.8-14.7-42.1-14.7
		c-16.4,0-31.2,5.6-41.8,14.5c-10.5,8.8-16.9,20.8-16.9,34.1C122.9,354.6,124.4,360.8,127.4,366.6z M181.6,213.4
		c-21.3,0-38.6,17.3-38.6,38.6s17.3,38.6,38.6,38.6s38.6-17.3,38.6-38.6S202.9,213.4,181.6,213.4z"/>
	<rect id="XMLID_625_" x="0.5" y="218.7" class="st1" width="54.9" height="54.9"/>
	<circle id="XMLID_624_" class="st1" cx="77.8" cy="127.4" r="36.3"/>
	<polygon id="XMLID_623_" class="st1" points="269.1,161.9 249.2,127.4 269.1,92.8 309,92.8 328.9,127.4 309,161.9 	"/>
	<polygon id="XMLID_622_" class="st2" points="355.8,196.7 369.4,224.1 399.6,228.5 377.7,249.8 382.9,279.9 355.8,265.7 
		328.8,279.9 334,249.8 312.1,228.5 342.3,224.1 	"/>
	<line id="XMLID_621_" class="st3" x1="116.2" y1="246.2" x2="81" y2="246.2"/>
	<line id="XMLID_620_" class="st3" x1="284.3" y1="246.2" x2="249.2" y2="246.2"/>
	<line id="XMLID_619_" class="st3" x1="240.3" y1="175.8" x2="215.4" y2="200.7"/>
	<line id="XMLID_618_" class="st3" x1="147.7" y1="200.7" x2="122.8" y2="175.8"/>
</g>
</svg>
