{
  "HEADER": {
    "About": "About",
    "Courses": "Courses",
    "Posts": "Events & News"
  },
  "MENU": {},
  "ABOUT": {
    "DESCRIPTION_1": "",
    "DESCRIPTION_2": "",
    "DESCRIPTION_3": "Learn more for our approach in the infographic below"
  },
  "COURSES": {
    "DESCRIPTION_1": "Select your Group and look at your weekly schedule.",
    "DESCRIPTION_2": "You won 't miss any of your classes!",
    "SELECT_GROUP": "SELECT YOUR GROUP",
    "NO_COURSE": "No Course",
    "DAYS": {
      "Monday": "Monday",
      "Tuesday": "Tuesday",
      "Wednesday": "Wednesday",
      "Thursday": "Thursday",
      "Friday": "Friday",
      "Saturday": "Saturday",
      "Sunday": "Sunday"
    }
  },
  "EVENTS_AND_NEWS": {
    "All": "All",
    "Articles": "Articles",
    "Events": "Events",
    "Educationals": "Educationals"
  }
}
